<?xml version="1.0" encoding="UTF-8" standalone="no"?>
<svg
   xmlns:dc="http://purl.org/dc/elements/1.1/"
   xmlns:cc="http://creativecommons.org/ns#"
   xmlns:rdf="http://www.w3.org/1999/02/22-rdf-syntax-ns#"
   xmlns:svg="http://www.w3.org/2000/svg"
   xmlns="http://www.w3.org/2000/svg"
   id="svg86"
   version="1.1"
   viewBox="0 0 127 21.16667"
   height="21.16667mm"
   width="127mm">
  <defs
     id="defs80" />
  <metadata
     id="metadata83">
    <rdf:RDF>
      <cc:Work
         rdf:about="">
        <dc:format>image/svg+xml</dc:format>
        <dc:type
           rdf:resource="http://purl.org/dc/dcmitype/StillImage" />
        <dc:title></dc:title>
      </cc:Work>
    </rdf:RDF>
  </metadata>
  <g
     id="layer1">
    <g
       transform="translate(-149.67857,-238.79167)"
       id="g107">
      <path
         id="path111"
         d="m 149.67857,249.375 v -10.58333 h 1.32292 1.32291 v 2.64583 2.64584 h 2.64584 2.64583 v 7.9375 7.9375 h -3.96875 -3.96875 z m 5.29167,2.64584 V 249.375 h -1.32292 -1.32292 v 2.64584 2.64583 h 1.32292 1.32292 z m 5.29166,2.64583 V 249.375 h 1.32292 1.32292 v -2.64583 -2.64583 h 2.64583 2.64583 v 7.9375 7.9375 h -3.96875 -3.96875 z m 10.58334,-2.64583 v -7.9375 h 2.64583 2.64583 v -2.64584 -2.64583 h 1.32292 1.32292 v 10.58333 10.58334 h -3.96875 -3.96875 z m 5.29166,0 V 249.375 h -1.32291 -1.32292 v 2.64584 2.64583 h 1.32292 1.32291 z m 5.29167,2.64583 V 249.375 h 1.32292 1.32291 v -2.64583 -2.64583 h 2.64584 2.64583 v 7.9375 7.9375 h -3.96875 -3.96875 z m 13.22917,2.64583 v -2.64583 h -1.32292 -1.32292 v -5.29167 -5.29166 h 2.64584 2.64583 v 2.64583 2.64583 h 1.32292 1.32291 v 5.29167 5.29167 h -2.64583 -2.64583 z m 7.9375,-7.9375 v -10.58333 h 1.32291 1.32292 v 10.58333 10.58334 h -1.32292 -1.32291 z m 5.29166,2.64584 v -7.9375 h 3.96875 3.96875 v 7.9375 7.9375 h -1.32291 -1.32292 v -5.29167 -5.29167 h -1.32292 -1.32291 v 5.29167 5.29167 h -1.32292 -1.32292 z m 10.58334,-2.64584 v -10.58333 h 1.32291 1.32292 v 2.64583 2.64584 h 1.32292 1.32291 v 2.64583 2.64583 h -1.32291 -1.32292 v 5.29167 5.29167 h -1.32292 -1.32291 z m 7.9375,2.64584 v -7.9375 h 3.96875 3.96875 v 5.29166 5.29167 h -1.32292 -1.32292 v 2.64583 2.64584 h -2.64583 -2.64583 z m 10.58333,0 v -7.9375 h 3.96875 3.96875 v 7.9375 7.9375 h -1.32292 -1.32291 v -5.29167 -5.29167 h -1.32292 -1.32292 v 5.29167 5.29167 h -1.32291 -1.32292 z m 10.58333,0 v -7.9375 h 2.64584 2.64583 v -2.64584 -2.64583 h 1.32292 1.32291 v 10.58333 10.58334 h -3.96875 -3.96875 z m 5.29167,0 V 249.375 h -1.32292 -1.32291 v 2.64584 2.64583 h 1.32291 1.32292 z m 5.29167,0 v -7.9375 h 3.96875 3.96875 v 5.29166 5.29167 h -1.32292 -1.32292 v 2.64583 2.64584 h -2.64583 -2.64583 z m 10.58333,0 v -7.9375 h 2.64583 2.64584 v -2.64584 -2.64583 h 1.32291 1.32292 v 10.58333 10.58334 h -3.96875 -3.96875 z m 5.29167,0 V 249.375 h -1.32292 -1.32292 v 2.64584 2.64583 h 1.32292 1.32292 z"
         style="fill:#8a946c;stroke-width:1" />
      <path
         id="path109"
         d="m 149.67857,248.05209 v -9.26042 h 1.32292 1.32291 v 2.64583 2.64584 h 2.64584 2.64583 v 6.61458 6.61458 h -3.96875 -3.96875 z m 5.29167,2.64583 v -3.96875 h -1.32292 -1.32292 v 3.96875 3.96875 h 1.32292 1.32292 z m 5.29166,2.64583 V 249.375 h 2.64584 2.64583 v -1.32291 -1.32292 h -1.32292 -1.32291 v -1.32292 -1.32291 h 2.64583 2.64583 v 6.61458 6.61458 h -3.96875 -3.96875 z m 5.29167,0 v -1.32291 h -1.32292 -1.32291 v 1.32291 1.32292 h 1.32291 1.32292 z m 5.29167,-2.64583 v -6.61458 h 2.64583 2.64583 v -2.64584 -2.64583 h 1.32292 1.32292 v 9.26042 9.26041 h -3.96875 -3.96875 z m 5.29166,0 v -3.96875 h -1.32291 -1.32292 v 3.96875 3.96875 h 1.32292 1.32291 z m 5.29167,2.64583 V 249.375 h 2.64583 2.64584 v -1.32291 -1.32292 h -1.32292 -1.32292 v -1.32292 -1.32291 h 2.64584 2.64583 v 6.61458 6.61458 h -3.96875 -3.96875 z m 5.29167,0 v -1.32291 h -1.32292 -1.32292 v 1.32291 1.32292 h 1.32292 1.32292 z m 7.9375,2.64584 v -1.32292 h 1.32291 1.32292 v -1.32292 -1.32291 h -2.64583 -2.64584 v -3.96875 -3.96875 h 2.64584 2.64583 v 1.32291 1.32292 h -1.32292 -1.32291 v 1.32292 1.32291 h 2.64583 2.64583 v 3.96875 3.96875 h -2.64583 -2.64583 z m 7.9375,-5.29167 v -6.61458 h 1.32291 1.32292 v 6.61458 6.61458 h -1.32292 -1.32291 z m 5.29166,0 v -6.61458 h 3.96875 3.96875 v 6.61458 6.61458 h -1.32291 -1.32292 v -5.29166 -5.29167 h -1.32292 -1.32291 v 5.29167 5.29166 h -1.32292 -1.32292 z m 10.58334,-2.64583 v -9.26042 h 1.32291 1.32292 v 2.64583 2.64584 h 1.32292 1.32291 v 1.32291 1.32292 h -1.32291 -1.32292 v 5.29167 5.29166 h -1.32292 -1.32291 z m 7.9375,2.64583 v -6.61458 h 3.96875 3.96875 v 3.96875 3.96875 h -2.64584 -2.64583 v 1.32291 1.32292 h 1.32292 1.32291 v 1.32292 1.32291 h -2.64583 -2.64583 z m 5.29166,-2.64583 v -1.32292 h -1.32291 -1.32292 v 1.32292 1.32291 h 1.32292 1.32291 z m 5.29167,2.64583 v -6.61458 h 3.96875 3.96875 v 6.61458 6.61458 h -1.32292 -1.32291 v -5.29166 -5.29167 h -1.32292 -1.32292 v 5.29167 5.29166 h -1.32291 -1.32292 z m 10.58333,0 v -6.61458 h 2.64584 2.64583 v -2.64584 -2.64583 h 1.32292 1.32291 v 9.26042 9.26041 h -3.96875 -3.96875 z m 5.29167,0 v -3.96875 h -1.32292 -1.32291 v 3.96875 3.96875 h 1.32291 1.32292 z m 5.29167,0 v -6.61458 h 3.96875 3.96875 v 3.96875 3.96875 h -2.64584 -2.64583 v 1.32291 1.32292 h 1.32292 1.32291 v 1.32292 1.32291 h -2.64583 -2.64583 z m 5.29166,-2.64583 v -1.32292 h -1.32291 -1.32292 v 1.32292 1.32291 h 1.32292 1.32291 z m 5.29167,2.64583 v -6.61458 h 2.64583 2.64584 v -2.64584 -2.64583 h 1.32291 1.32292 v 9.26042 9.26041 h -3.96875 -3.96875 z m 5.29167,0 v -3.96875 h -1.32292 -1.32292 v 3.96875 3.96875 h 1.32292 1.32292 z m -71.4375,-10.58333 v -1.32292 h 1.32291 1.32292 v 1.32292 1.32291 h -1.32292 -1.32291 z"
         style="fill:#4c523b;stroke-width:1" />
    </g>
  </g>
</svg>
